# Anbennar Changes
# Added Adventurer as another gov without estates

estate_cossacks =
{
	icon = 4
	
	color = { 200 150 150 }
	
	# Used for when declaring independence
	independence_government = steppe_horde
	independence_tech_group = nomad_group
	independence_trigger = {
		OR = { 		
			has_terrain = steppe
			has_estate = estate_cossacks
		}
	}
	
	# Is estate kept in control of province on conquest?
	keep_on_conquest = no
	
	# If true, country will get estate
	
	trigger = {	
		NOT = { government = merchant_republic }
		NOT = { government = trading_city }
		NOT = { government = revolutionary_republic }
		NOT = { government = native_council }
		NOT = { government = siberian_native_council }
		NOT = { government = veche_republic }
		
		NOT = { government = adventurer }
		
		is_nomad = no
		is_colonial_nation = no
		NOT = { government = celestial_empire }
		unit_type = eastern
		religion_group = christian
	}
	
	# If true, province can be granted to estate
	province_trigger = {
		has_terrain = steppe
	}	
	
	# Min autonomy in estate provinces
	min_autonomy = 25
	
	# Estate cancels out the following multiplicative local autonomy effects:
	autonomy_does_not_affect = local_manpower_modifier
	autonomy_does_not_affect = land_forcelimit_modifier

	# These scale with loyalty & power
	country_modifier_happy = {
		cavalry_cost = -0.2
		cavalry_power = 0.2
		cav_to_inf_ratio = 0.10
	}
	country_modifier_neutral = {
		cavalry_power = 0.2
	}	
	country_modifier_angry = {
		cavalry_cost = 0.2
		cavalry_power = -0.1
	}
	
	# These do not scale, but only applied in provinces owned by the estate
	province_modifier_happy = {	
		local_hostile_attrition = 1
		local_manpower_modifier = 0.2
	}
	province_modifier_neutral = {
		local_hostile_attrition = 1
	}	
	province_modifier_angry = {
		local_unrest = 5
	}
	
	# Influence modifiers
	base_influence = 0
	influence_modifier = {
		desc = EST_STEPPE_PROVINCES
		trigger = {
			any_owned_province = {
				has_terrain = steppe
			}
			num_of_cities = 10
		}
		influence = 10
	}
	influence_modifier = {
		desc = EST_VAL_OTHER_ESTATE_IN_POWER
		trigger = {
			OR = {
				has_disaster = estate_nobility_disaster
				has_disaster = estate_church_disaster
				has_disaster = estate_burghers_disaster
			}
		}
		influence = -40
	}
	
	loyalty_modifier = {
		desc = EST_VAL_OTHER_ESTATE_IN_POWER_LOY
		trigger = {
			OR = {
				has_disaster = estate_nobility_disaster
				has_disaster = estate_church_disaster
				has_disaster = estate_burghers_disaster
			}
		}
		loyalty = -20
	}
	
	# For province assignment
	ai_grant_province = {
		factor = 10		
		modifier = {
			factor = 4
			local_autonomy = 25
		}
		modifier = {
			factor = 0.25
			NOT = { local_autonomy = 25 }
		}
	}	
	
	# Does the AI want to give any extra territory beyond the minimum?
	ai_territory_modifier = {
		trigger = {
			always = yes
		}	
		value = 100	# Code has a sanity check against pushing influence too high
	}

	#Interactions
	interaction = {
		name = "EXPAND_COSSACK_REGISTRY"
		icon = 17
		
		years_between_use = 20
		
		trigger = {
			any_owned_province = {
				has_terrain = steppe
			}
		}
		
		effect = {
			add_prestige = -5
			add_estate_loyalty = {
				estate = estate_cossacks
				loyalty = 10
			}
			add_estate_influence_modifier = {
				estate = estate_cossacks
				desc = EST_VAL_COSSACK_REGISTER_EXPANDED
				influence = 10
				duration = 7300
			}
		}
		
		ai_will_do = {
			factor = 1
			modifier = {
				factor = 0
				estate_influence = {
					estate = estate_cossacks
					influence = 60
				}				
			}
			modifier = {
				factor = 0
				estate_loyalty = {
					estate = estate_cossacks
					loyalty = 30
				}				
			}			
		}
	}
	
	interaction = {
		name = "RAISE_COSSACK_HOST"
		icon = 13
		
		years_between_use = 5
		
		potential = {
			NOT = { has_disaster = estate_burghers_disaster }
			NOT = { has_disaster = estate_church_disaster }
			NOT = { has_disaster = estate_nobility_disaster }
		}
		
		trigger = {
			estate_loyalty = {
				estate = estate_cossacks
				loyalty = 50
			}
			estate_influence = {
				estate = estate_cossacks
				influence = 40
			}
			custom_trigger_tooltip = {
				tooltip = tooltip_own_cossack_province
				any_owned_province = {
					has_estate = estate_cossacks
				}
			}
		}
		
		effect = {
			random_owned_province = {
				limit = { has_estate = estate_cossacks }
				cossack_cavalry = ROOT
				if = {
					limit = {
						owner = {
							num_of_owned_provinces_with = {
								value = 2
								has_estate = estate_cossacks
							}
						}
					}
					cossack_cavalry = ROOT
				}
				if = {
					limit = {
						owner = {
							num_of_owned_provinces_with = {
								value = 3
								has_estate = estate_cossacks
							}
						}
					}
					cossack_cavalry = ROOT
				}
				if = {
					limit = {
						owner = {
							num_of_owned_provinces_with = {
								value = 4
								has_estate = estate_cossacks
							}
						}
					}
					cossack_cavalry = ROOT
				}
				if = {
					limit = {
						owner = {
							num_of_owned_provinces_with = {
								value = 5
								has_estate = estate_cossacks
							}
						}
					}
					cossack_cavalry = ROOT
				}
				if = {
					limit = {
						owner = {
							num_of_owned_provinces_with = {
								value = 6
								has_estate = estate_cossacks
							}
							estate_influence = {
								estate = estate_cossacks
								influence = 60
							}
						}
					}
					cossack_cavalry = ROOT
				}
				if = {
					limit = {
						owner = {
							num_of_owned_provinces_with = {
								value = 7
								has_estate = estate_cossacks
							}
							estate_influence = {
								estate = estate_cossacks
								influence = 60
							}
						}
					}
					cossack_cavalry = ROOT
				}
				if = {
					limit = {
						owner = {
							num_of_owned_provinces_with = {
								value = 8
								has_estate = estate_cossacks
							}
							estate_influence = {
								estate = estate_cossacks
								influence = 60
							}
						}
					}
					cossack_cavalry = ROOT
				}
				if = {
					limit = {
						owner = {
							num_of_owned_provinces_with = {
								value = 9
								has_estate = estate_cossacks
							}
							estate_influence = {
								estate = estate_cossacks
								influence = 60
							}
						}
					}
					cossack_cavalry = ROOT
				}
				if = {
					limit = {
						owner = {
							num_of_owned_provinces_with = {
								value = 10
								has_estate = estate_cossacks
							}
							estate_influence = {
								estate = estate_cossacks
								influence = 60
							}
						}
					}
					cossack_cavalry = ROOT
				}
			}
			add_estate_loyalty = {
				estate = estate_cossacks
				loyalty = -15
			}
			add_estate_influence_modifier = {
				estate = estate_cossacks
				desc = EST_VAL_RAISED_COSSACK_HOST
				influence = 5
				duration = 1825
			}
		}
		
		ai_will_do = {
			factor = 1
			modifier = {
				factor = 0
				estate_influence = {
					estate = estate_cossacks
					influence = 70
				}				
			}
			modifier = {
				factor = 0
				ai_wants_raise_cossack = no
			}	
		}
	}
	interaction = {
		name = "COSSACK_CONQUISTADOR" #Led important exploration expeditions into Siberia
		icon = 19
		
		years_between_use = 30
		
		potential = {
			NOT = { has_disaster = estate_burghers_disaster }
			NOT = { has_disaster = estate_church_disaster }
			NOT = { has_disaster = estate_nobility_disaster }
		}
		
		potential = {
			OR = {
				has_idea_group = exploration_ideas
				has_idea = siberian_frontier
			}
		}
		
		trigger = {
			estate_loyalty = {
				estate = estate_cossacks
				loyalty = 50
			}
			estate_influence = {
				estate = estate_cossacks
				influence = 40
			}
		}
		effect = {
			create_conquistador = 40		
			add_estate_influence_modifier = {
				estate = estate_cossacks
				desc = EST_VAL_COSSACK_CONQUISTADOR
				influence = 15
				duration = 10950
			}
		}
		
		ai_will_do = {
			factor = 0			
		}
	}
	interaction = {
		name = "RECRUIT_MINISTER"
		icon = 10
		
		years_between_use = 30
		
		potential = {
			NOT = { has_disaster = estate_burghers_disaster }
			NOT = { has_disaster = estate_church_disaster }
			NOT = { has_disaster = estate_nobility_disaster }
		}
		
		trigger = {
			estate_influence = {
				estate = estate_cossacks
				influence = 40
			}
		}
		
		effect = {
			hidden_effect = {
				random_owned_province = {
					limit = {
						has_estate = estate_cossacks
					}
					save_event_target_as = estate_estate_province
				}
			}
			if = {
				limit = {
					monthly_income = 25
					has_saved_event_target = estate_estate_province
				}
				define_advisor = {
					type = army_reformer
					skill = 3
					culture = event_target:estate_estate_province
					religion = event_target:estate_estate_province
					location = event_target:estate_estate_province
					discount = yes
				}
			}
			else_if = {
				limit = {
					monthly_income = 25
					NOT = { has_saved_event_target = estate_estate_province }
				}
				define_advisor = {
					type = army_reformer
					skill = 3
					discount = yes
				}
			}
			else_if = {
				limit = {
					NOT = { monthly_income = 25 }
					has_saved_event_target = estate_estate_province
				}
				define_advisor = {
					type = army_reformer
					skill = 2
					discount = yes
					culture = event_target:estate_estate_province
					religion = event_target:estate_estate_province
					location = event_target:estate_estate_province
				}
			}
			else_if = {
				limit = {
					NOT = { monthly_income = 25 }
					NOT = { has_saved_event_target = estate_estate_province }
				}
				define_advisor = {
					type = army_reformer
					skill = 2
					discount = yes
				}
			}
			
			add_estate_influence_modifier = {
				estate = estate_cossacks
				desc = EST_VAL_COSSACKS_MINISTER
				influence = 15
				duration = 10950
			}
			add_estate_loyalty = {
				estate = estate_nobles
				loyalty = -15 #Taking offense to a cossack being used in government
			}
		}
		
		ai_will_do = {
			factor = 0			
		}
	}	
	interaction = {
		name = "CONSCRIPT_COSSACK_ELITE"
		icon = 20
		
		years_between_use = 20
		
		potential = {
			NOT = { has_disaster = estate_burghers_disaster }
			NOT = { has_disaster = estate_church_disaster }
			NOT = { has_disaster = estate_nobility_disaster }
		}
		
		trigger = {
			custom_trigger_tooltip = {
				tooltip = tooltip_own_cossack_province
				any_owned_province = {
					has_estate = estate_cossacks
				}
			}
		}
		
		effect = {
			add_army_tradition = 10
			add_estate_loyalty = {
				estate = estate_cossacks
				loyalty = -15
			}
		}
		
		ai_will_do = {
			factor = 1
			modifier = {
				factor = 0
				NOT = {
					estate_loyalty = {
						estate = estate_cossacks
						loyalty = 60
					}
				}
			}			
		}		
	}
	interaction = {
		name = "SUPPLY_ARMS"
		icon = 21
		
		years_between_use = 20
		
		potential = {
			NOT = { has_disaster = estate_burghers_disaster }
			NOT = { has_disaster = estate_church_disaster }
			NOT = { has_disaster = estate_nobility_disaster }
		}
		
		trigger = {
			custom_trigger_tooltip = {
				tooltip = tooltip_own_cossack_province
				any_owned_province = {
					has_estate = estate_cossacks
				}
			}
		}
		
		effect = {
			add_mil_power = -15
			add_country_modifier = {
				name = "armed_cossacks"
				duration = 7300
			}
			add_estate_loyalty = {
				estate = estate_cossacks
				loyalty = 5
			}
			add_estate_influence_modifier = {
				estate = estate_cossacks
				desc = EST_VAL_SUPPLY_ARMS
				influence = 10
				duration = 7300
			}
		}
		
		ai_will_do = {
			factor = 10
			modifier = {
				factor = 0
				estate_influence = {
					estate = estate_cossacks
					influence = 60
				}
			}
		}	
	}	
	interaction = {
		name = "PERMIT_SELF_GOVERNANCE"
		icon = 22
		
		years_between_use = 10
		
		potential = {
			NOT = { has_disaster = estate_burghers_disaster }
			NOT = { has_disaster = estate_church_disaster }
			NOT = { has_disaster = estate_nobility_disaster }
			NOT = { current_age = age_of_absolutism }
			NOT = { current_age = age_of_revolutions }
			any_owned_province = {
				has_estate = estate_cossacks
			}
		}
		
		trigger = {
			NOT = { current_age = age_of_absolutism }
			NOT = { current_age = age_of_revolutions }
			custom_trigger_tooltip = {
				tooltip = tooltip_own_cossack_province
				any_owned_province = {
					has_estate = estate_cossacks
				}
			}
		}
		
		effect = {
			every_owned_province = {
				limit = {
					has_estate = estate_cossacks
				}
				add_local_autonomy = 10
			}
			add_estate_loyalty = {
				estate = estate_cossacks
				loyalty = 5
			}
			add_estate_influence_modifier = {
				estate = estate_cossacks
				desc = EST_VAL_SELF_GOVERNANCE
				influence = 10
				duration = 7300
			}
		}
		
		ai_will_do = {
			factor = 1
			modifier = {
				factor = 0
				estate_loyalty = {
					estate = estate_cossacks
					loyalty = 40
				}
			}			
		}		
	}
}